rake aborted!
Access denied for user 'root'@'localhost' (using password: YES)
/home/lewen/.rvm/gems/ruby-1.9.3-p385/gems/mysql2-0.3.11/lib/mysql2/client.rb:44:in `connect'
/home/lewen/.rvm/gems/ruby-1.9.3-p385/gems/mysql2-0.3.11/lib/mysql2/client.rb:44:in `initialize'
/home/lewen/.rvm/gems/ruby-1.9.3-p385/gems/activerecord-3.2.9/lib/active_record/connection_adapters/mysql2_adapter.rb:16:in `new'
/home/lewen/.rvm/gems/ruby-1.9.3-p385/gems/activerecord-3.2.9/lib/active_record/connection_adapters/mysql2_adapter.rb:16:in `mysql2_connection'
/home/lewen/.rvm/gems/ruby-1.9.3-p385/gems/activerecord-3.2.9/lib/active_record/connection_adapters/abstract/connection_pool.rb:315:in `new_connection'
/home/lewen/.rvm/gems/ruby-1.9.3-p385/gems/activerecord-3.2.9/lib/active_record/connection_adapters/abstract/connection_pool.rb:325:in `checkout_new_connection'
/home/lewen/.rvm/gems/ruby-1.9.3-p385/gems/activerecord-3.2.9/lib/active_record/connection_adapters/abstract/connection_pool.rb:247:in `block (2 levels) in checkout'
/home/lewen/.rvm/gems/ruby-1.9.3-p385/gems/activerecord-3.2.9/lib/active_record/connection_adapters/abstract/connection_pool.rb:242:in `loop'
/home/lewen/.rvm/gems/ruby-1.9.3-p385/gems/activerecord-3.2.9/lib/active_record/connection_adapters/abstract/connection_pool.rb:242:in `block in checkout'
/home/lewen/.rvm/gems/ruby-1.9.3-p385/gems/activerecord-3.2.9/lib/active_record/connection_adapters/abstract/connection_pool.rb:239:in `checkout'
/home/lewen/.rvm/gems/ruby-1.9.3-p385/gems/activerecord-3.2.9/lib/active_record/connection_adapters/abstract/connection_pool.rb:102:in `block in connection'
/home/lewen/.rvm/gems/ruby-1.9.3-p385/gems/activerecord-3.2.9/lib/active_record/connection_adapters/abstract/connection_pool.rb:101:in `connection'
/home/lewen/.rvm/gems/ruby-1.9.3-p385/gems/activerecord-3.2.9/lib/active_record/connection_adapters/abstract/connection_pool.rb:410:in `retrieve_connection'
/home/lewen/.rvm/gems/ruby-1.9.3-p385/gems/activerecord-3.2.9/lib/active_record/connection_adapters/abstract/connection_specification.rb:171:in `retrieve_connection'
/home/lewen/.rvm/gems/ruby-1.9.3-p385/gems/activerecord-3.2.9/lib/active_record/connection_adapters/abstract/connection_specification.rb:145:in `connection'
/home/lewen/.rvm/gems/ruby-1.9.3-p385/gems/activerecord-3.2.9/lib/active_record/model_schema.rb:228:in `columns'
/home/lewen/.rvm/gems/ruby-1.9.3-p385/gems/activerecord-3.2.9/lib/active_record/model_schema.rb:243:in `column_defaults'
/home/lewen/.rvm/gems/ruby-1.9.3-p385/gems/activerecord-3.2.9/lib/active_record/base.rb:482:in `initialize'
/home/lewen/kinabird/lib/tasks/get_feeds.rake:79:in `new'
/home/lewen/kinabird/lib/tasks/get_feeds.rake:79:in `process_news'
/home/lewen/kinabird/lib/tasks/get_feeds.rake:13:in `block (4 levels) in <top (required)>'
/home/lewen/kinabird/lib/tasks/get_feeds.rake:12:in `each'
/home/lewen/kinabird/lib/tasks/get_feeds.rake:12:in `block (3 levels) in <top (required)>'
/home/lewen/kinabird/lib/tasks/get_feeds.rake:10:in `each'
/home/lewen/kinabird/lib/tasks/get_feeds.rake:10:in `block (2 levels) in <top (required)>'
/home/lewen/.rvm/gems/ruby-1.9.3-p385/bin/ruby_noexec_wrapper:14:in `eval'
/home/lewen/.rvm/gems/ruby-1.9.3-p385/bin/ruby_noexec_wrapper:14:in `<main>'
Tasks: TOP => parse:get_feeds
(See full trace by running task with --trace)
